Place,Name,Division,Equipment,Event,BirthDate,BirthYear,Sex,BodyweightKg,WeightClassKg,Squat1Kg,Squat2Kg,Squat3Kg,Best3SquatKg,Bench1Kg,Bench2Kg,Bench3Kg,Best3BenchKg,Deadlift1Kg,Deadlift2Kg,Deadlift3Kg,Best3DeadliftKg,TotalKg,EntryDate
1,Marine Celse,Seniors,Single-ply,SBD,,1995,F,61.19,63,105,115,-125,115,65,70,-72.5,70,107.5,115,122.5,122.5,307.5,2022-10-29
G,Manon Guessard,Seniors,Single-ply,SBD,,1996,F,60.61,63,92.5,95,-100,95,50,-55,-55,50,90,97.5,-105,97.5,242.5,2022-10-29
1,Christelle Musseau,Masters 1,Single-ply,SBD,,1974,F,60.34,63,-105,105,115,115,65,70,72.5,72.5,107.5,115,-120,115,302.5,2022-10-29
1,Florence Leccese,Masters 2,Single-ply,SBD,,1969,F,63.05,69,125,135,145,145,77.5,82.5,-87.5,82.5,110,117.5,122.5,122.5,350,2022-10-29
2,Géraldine Verlaine,Masters 2,Single-ply,SBD,,1970,F,51.4,52,-100,100,107.5,107.5,72.5,75,77.5,77.5,105,112.5,120,120,305,2022-10-29
1,Martine Parfait,Masters 3,Single-ply,SBD,,1957,F,56.28,57,102.5,107.5,110,110,60,62.5,65,65,117.5,125,130,130,305,2022-10-29
1,Adrien Mailler,Seniors,Single-ply,SBD,,1987,M,58.89,59,165,172.5,177.5,177.5,100,-110,-112.5,100,220,235,-248,235,512.5,2022-10-29
2,Jonathan Bar,Seniors,Single-ply,SBD,,1996,M,71.74,74,185,192.5,-195,192.5,120,-125,-130,120,-210,215,-222.5,215,527.5,2022-10-29
3,Jérôme Godsens,Seniors,Single-ply,SBD,,1983,M,81.42,83,190,200,-220,200,145,-150,-150,145,-205,210,-230,210,555,2022-10-29
1,Ryan Evraere,Seniors,Single-ply,SBD,,1997,M,86.39,93,190,205,215,215,-170,170,180,180,215,230,-245,230,625,2022-10-29
1,Bertrand Couvercelle,Masters 1,Single-ply,SBD,,1977,M,80.25,83,255,-257.5,-262.5,255,152.5,-157.5,-165,152.5,220,227.5,235,235,642.5,2022-10-29
1,Charly Mercier,Masters 1,Single-ply,SBD,,1973,M,104.95,105,-225,225,235,235,127.5,132.5,135,135,240,250,-260,250,620,2022-10-29
2,David Kelle,Masters 1,Single-ply,SBD,,1976,M,91.58,93,200,-215,-215,200,142.5,-147.5,-147.5,142.5,200,215,-225,215,557.5,2022-10-29
1,Franck Jouveaux,Masters 2,Single-ply,SBD,,1971,M,65.62,66,210,-220,-220,210,110,115,120,120,215,225,235,235,565,2022-10-29
2,Christophe Cherel,Masters 2,Single-ply,SBD,,1967,M,72.82,74,200,210,-212.5,210,110,-115,-115,110,230,240,-250,240,560,2022-10-29
3,Philippe Courtois,Masters 2,Single-ply,SBD,,1964,M,72.69,74,175,182.5,190,190,-120,120,-125,120,190,200,210,210,520,2022-10-29
4,Ludovic Lutz,Masters 2,Single-ply,SBD,,1971,M,80.2,83,155,-157.5,170,170,125,135,142.5,142.5,155,170,180,180,492.5,2022-10-29
1,Gemel Boughamdouz,Masters 2,Single-ply,SBD,,1963,M,89.76,93,225,-235,-235,225,185,190,,190,200,215,225,225,640,2022-10-29
2,Michel Aguilera,Masters 2,Single-ply,SBD,,1966,M,91.18,93,180,195,205,205,145,150,155,155,225,240,250,250,610,2022-10-29
3,Mickael Colmard,Masters 2,Single-ply,SBD,,1971,M,89.2,93,190,202.5,-220,202.5,150,-187.5,-187.5,150,175,200,,200,552.5,2022-10-29
DQ,Eric Bar,Masters 2,Single-ply,SBD,,1969,M,117.44,120,165,-172.5,,165,-202.5,-202.5,-205,,215,230,,230,,2022-10-29
1,Patrick Malenfant,Masters 3,Single-ply,SBD,,1958,M,73.11,74,-165,170,-175,170,115,120,,120,165,170,175,175,465,2022-10-29
1,Claude Couturier,Masters 4,Single-ply,SBD,,1952,M,72.46,74,170,-185,185,185,112.5,117.5,-120,117.5,170,180,-190,180,482.5,2022-10-29
2,Gérard Dufour,Masters 4,Single-ply,SBD,,1949,M,76.66,83,-125,125,135,135,90,100,105,105,160,180,-200,180,420,2022-10-29
1,Ines Herbaux,Open,Single-ply,B,,2003,F,51.36,52,,,,,65,-75,-82.5,65,,,,,65,2022-10-30
1,Marine Celse,Open,Single-ply,B,,1995,F,61.13,63,,,,,65,-70,-70,65,,,,,65,2022-10-30
1,Stéphanie Bastien,Masters 1,Single-ply,B,,1974,F,80.87,84,,,,,110,-120,120,120,,,,,120,2022-10-30
2,Melissa Meunier,Masters 1,Single-ply,B,,1975,F,60.08,63,,,,,82.5,-87.5,-87.5,82.5,,,,,82.5,2022-10-30
3,Christelle Musseau,Masters 1,Single-ply,B,,1974,F,60.34,63,,,,,65,70,-75,70,,,,,70,2022-10-30
1,Marie-France Cabos,Masters 2,Single-ply,B,,1967,F,56.51,57,,,,,90,95,-100,95,,,,,95,2022-10-30
2,Géraldine Verlaine,Masters 2,Single-ply,B,,1970,F,51.71,52,,,,,72.5,-77.5,-77.5,72.5,,,,,72.5,2022-10-30
1,Nathalie Gransard,Masters 2,Single-ply,B,,1964,F,96.5,84+,,,,,100,107.5,-110,107.5,,,,,107.5,2022-10-30
2,Florence Leccese,Masters 2,Single-ply,B,,1969,F,63.01,69,,,,,82.5,87.5,-92.5,87.5,,,,,87.5,2022-10-30
1,Martine Roche,Masters 3,Single-ply,B,,1956,F,50.45,52,,,,,65,70,72.5,72.5,,,,,72.5,2022-10-30
2,Brigitte Landon,Masters 3,Single-ply,B,,1961,F,49.16,52,,,,,70,-72.5,-72.5,70,,,,,70,2022-10-30
1,Patricia Maciejewski,Masters 3,Single-ply,B,,1961,F,68.39,69,,,,,80,85,-88,85,,,,,85,2022-10-30
2,Eveline Herbin,Masters 3,Single-ply,B,,1956,F,60.99,63,,,,,70,75,-77.5,75,,,,,75,2022-10-30
1,Françoise Heligon,Masters 4,Single-ply,B,,1943,F,50.6,52,,,,,47.5,-50,50,50,,,,,50,2022-10-30
1,François Merland,Open,Single-ply,B,,1984,M,65.88,66,,,,,130,-145,-145,130,,,,,130,2022-10-30
G,Cyprien Vanryssel,Open,Single-ply,B,,1999,M,67.98,74,,,,,115,120,125,125,,,,,125,2022-10-30
G,Mathieu Desbuisson,Open,Single-ply,B,,2000,M,69.87,74,,,,,115,-120,122.5,122.5,,,,,122.5,2022-10-30
1,Vincent Mayeux,Open,Single-ply,B,,1992,M,91.77,93,,,,,-190,190,-200,190,,,,,190,2022-10-30
2,Rémi Denecker,Open,Single-ply,B,,1986,M,81.58,83,,,,,170,-185,-185,170,,,,,170,2022-10-30
3,Ryan Evraere,Open,Single-ply,B,,1997,M,85.44,93,,,,,175,-185,-185,175,,,,,175,2022-10-30
1,Ludovic Javaloyes,Open,Single-ply,B,,1986,M,99.81,105,,,,,190,200,-220,200,,,,,200,2022-10-30
G,Thierry Sivadier,Masters 1,Single-ply,B,,1975,M,71.5,74,,,,,112.5,-117.5,-117.5,112.5,,,,,112.5,2022-10-30
1,John Brusco,Masters 1,Single-ply,B,,1978,M,79.63,83,,,,,180,185,190,190,,,,,190,2022-10-30
2,Lionel Suc,Masters 1,Single-ply,B,,1975,M,82.35,83,,,,,180,-185,-185,180,,,,,180,2022-10-30
3,David Dufour,Masters 1,Single-ply,B,,1973,M,92.94,93,,,,,180,-190,-190,180,,,,,180,2022-10-30
DQ,Didier Dacquignie,Masters 1,Single-ply,B,,1973,M,88.67,93,,,,,-180,-180,-182.5,,,,,,,2022-10-30
1,Jérôme Guidez,Masters 1,Single-ply,B,,1974,M,146.8,120+,,,,,-210,210,230,230,,,,,230,2022-10-30
DQ,Thierry Kelle,Masters 1,Single-ply,B,,1976,M,102.13,105,,,,,-180,-180,-180,,,,,,,2022-10-30
DQ,Nicolas Bourgoo,Masters 1,Single-ply,B,,1976,M,155.55,120+,,,,,-200,-200,-200,,,,,,,2022-10-30
1,Olivier Waymel,Masters 2,Single-ply,B,,1966,M,63.3,66,,,,,160,165,-170,165,,,,,165,2022-10-30
2,Alphonse Cucuzella,Masters 2,Single-ply,B,,1966,M,73,74,,,,,165,170,-180,170,,,,,170,2022-10-30
3,Vincent Eldin,Masters 2,Single-ply,B,,1972,M,73.98,74,,,,,170,-180,-182.5,170,,,,,170,2022-10-30
1,Cyril Pinguet,Masters 2,Single-ply,B,,1972,M,82.51,83,,,,,210,212.5,-225,212.5,,,,,212.5,2022-10-30
2,Fabrice Bertin,Masters 2,Single-ply,B,,1967,M,91.42,93,,,,,225,-235,-243.5,225,,,,,225,2022-10-30
3,Bruno Bastien,Masters 2,Single-ply,B,,1965,M,81.66,83,,,,,170,-175,-175,170,,,,,170,2022-10-30
4,Christophe Bertolino,Masters 2,Single-ply,B,,1969,M,81.31,83,,,,,155,-160,-170,155,,,,,155,2022-10-30
5,Mickael Colmard,Masters 2,Single-ply,B,,1971,M,89.13,93,,,,,160,,,160,,,,,160,2022-10-30
1,Eric Bar,Masters 2,Single-ply,B,,1969,M,117.3,120,,,,,-195,195,,195,,,,,195,2022-10-30
1,Patrick Malenfant,Masters 3,Single-ply,B,,1958,M,73.49,74,,,,,115,-120,,115,,,,,115,2022-10-30
1,Patrice Lefebvre,Masters 3,Single-ply,B,,1962,M,152.1,120+,,,,,210,-225.5,,210,,,,,210,2022-10-30
1,Claude Sitruk,Masters 4,Single-ply,B,,1950,M,67.1,74,,,,,115,-122.5,-125,115,,,,,115,2022-10-30
2,Claude Couturier,Masters 4,Single-ply,B,,1952,M,72.87,74,,,,,112.5,117.5,-120,117.5,,,,,117.5,2022-10-30
1,Alain Collard,Masters 4,Single-ply,B,,1952,M,79.94,83,,,,,130,-140,140,140,,,,,140,2022-10-30
2,Gaetan Guarino,Masters 4,Single-ply,B,,1947,M,82.31,83,,,,,112.5,117.5,120,120,,,,,120,2022-10-30
3,Louis Paruit,Masters 4,Single-ply,B,,1944,M,89.02,93,,,,,105,-110,110,110,,,,,110,2022-10-30
1,Didier Egels,Masters 4,Single-ply,B,,1950,M,93.63,105,,,,,115,-120,-120,115,,,,,115,2022-10-30
