Division,WeightClassKg,Place,Name,Team,BodyweightKg,Best3SquatKg,Best3BenchKg,Best3DeadliftKg,TotalKg,Equipment,Event,Sex
Boys,51.71,1,Jordan Bardwell,Nederland,51.21,104.33,56.7,115.67,276.69,Single-ply,SBD,M
Boys,51.71,2,Raymen Thompson,Beaumont Central,50.44,68.04,52.16,92.99,213.19,Single-ply,SBD,M
Boys,51.71,DQ,Marcus Foreman,Nederland,48.99,,,,,Single-ply,SBD,M
Boys,55.79,1,Melvin Quitugua,Vidor,53.8,136.08,97.52,149.69,383.29,Single-ply,SBD,M
Boys,55.79,DQ,Julian Perez,Beaumont West Brook,53.93,,,,,Single-ply,SBD,M
Boys,55.79,3,Matthew Riddick,CROSBY,55.79,127.01,79.38,147.42,353.8,Single-ply,SBD,M
Boys,59.87,4,Dominique Johnson,Beaumont Central,55.97,122.47,77.11,149.69,349.27,Single-ply,SBD,M
Boys,55.79,5,Ryan Levy,Beaumont West Brook,55.66,113.4,72.57,147.42,333.39,Single-ply,SBD,M
Boys,55.79,6,Tristan Douget,Port Neches-Groves,55.34,117.93,61.23,122.47,301.64,Single-ply,SBD,M
Boys,55.79,DQ,Jacob Wootson,Beaumont West Brook,55.79,,,,,Single-ply,SBD,M
Boys,59.87,1,Brandon Coon,Conroe Caney Creek,59.65,170.1,79.38,170.1,419.57,Single-ply,SBD,M
Boys,59.87,2,Juan Ochoa,CROSBY,57.92,165.56,83.91,165.56,415.04,Single-ply,SBD,M
Boys,59.87,3,Jacob Trahan,Bridge City,57.38,154.22,81.65,163.29,399.16,Single-ply,SBD,M
Boys,59.87,4,Drew Alvarez,Beaumont West Brook,59.87,142.88,81.65,158.76,383.29,Single-ply,SBD,M
Boys,59.87,5,Connor Thompson,Nederland,57.15,102.06,56.7,111.13,269.89,Single-ply,SBD,M
Boys,59.87,DQ,Bailey Newcost,Nederland,59.87,,,,,Single-ply,SBD,M
Boys,59.87,DQ,Dustin Drown,Saratoga West Hardin,59.87,,,,,Single-ply,SBD,M
Boys,59.87,DQ,Christian Tejada,Conroe,59.87,,,,,Single-ply,SBD,M
Boys,59.87,DQ,Charles Bell,Beaumont West Brook,59.87,,,,,Single-ply,SBD,M
Boys,67.13,1,Patrick Dorn,Vidor,66.95,195.04,111.13,192.78,498.95,Single-ply,SBD,M
Boys,67.13,2,Lane Cappel,Nederland,64.41,179.17,97.52,190.51,467.2,Single-ply,SBD,M
Boys,67.13,3,Dzjon McHenry,Beaumont Central,65.45,163.29,83.91,172.37,419.57,Single-ply,SBD,M
Boys,67.13,4,Reshawn Limerick,Beaumont West Brook,67,149.69,97.52,170.1,417.3,Single-ply,SBD,M
Boys,67.13,5,James Scott,Beaumont Central,60.19,149.69,77.11,167.83,394.63,Single-ply,SBD,M
Boys,67.13,6,Luke Potter,Bridge City,61.82,140.61,90.72,145.15,376.48,Single-ply,SBD,M
Boys,67.13,7,Jacob Mears,Beaumont Ozen,65.14,108.86,97.52,149.69,356.07,Single-ply,SBD,M
Boys,67.13,8,Jordan Hargrave,Port Neches-Groves,65.27,136.08,79.38,136.08,351.53,Single-ply,SBD,M
Boys,67.13,9,Kaid Guilbeaux,Port Neches-Groves,66.81,124.74,90.72,127.01,342.46,Single-ply,SBD,M
Boys,67.13,DQ,Zach Massey,Vidor,67.13,,,,,Single-ply,SBD,M
Boys,67.13,DQ,Chris Jolley,Hamshire-Fannett,62.6,,,,,Single-ply,SBD,M
Boys,67.13,DQ,David Rodas,CROSBY,67.13,,,,,Single-ply,SBD,M
Boys,67.13,DQ,Harold Redo,Beaumont Central,67.13,,,,,Single-ply,SBD,M
Boys,67.13,DQ,Fernando Mendez,Conroe Caney Creek,66.59,,,,,Single-ply,SBD,M
Boys,67.13,DQ,Tyree Pete,Nederland,63.5,108.86,70.31,,,Single-ply,SBD,M
Boys,74.84,1,Rodney Kinchen,Port Arthur Memorial,74.12,195.04,120.2,215.46,530.7,Single-ply,SBD,M
Boys,74.84,2,Jordin Pastorella,Nederland,74.66,188.24,120.2,201.85,510.29,Single-ply,SBD,M
Boys,74.84,3,Issac Cheatham,Beaumont West Brook,72.62,163.29,102.06,217.72,483.08,Single-ply,SBD,M
Boys,82.1,4,Lance Cole,CROSBY,74.93,167.83,115.67,165.56,449.06,Single-ply,SBD,M
Boys,74.84,5,Kalique Ferguson,Beaumont Ozen,74.34,142.88,106.59,190.51,439.98,Single-ply,SBD,M
Boys,82.1,6,Manuel Farais,Nederland,74.93,158.76,97.52,174.63,430.91,Single-ply,SBD,M
Boys,74.84,7,Drake Meaux,Nederland,67.59,165.56,74.84,163.29,403.7,Single-ply,SBD,M
Boys,74.84,8,Dustin Tatar,Vidor,73.16,142.88,92.99,154.22,390.09,Single-ply,SBD,M
Boys,74.84,9,Jacob Smith,Port Neches-Groves,68.13,136.08,95.25,154.22,385.55,Single-ply,SBD,M
Boys,74.84,10,Davian Sutton,Beaumont Central,74.34,102.06,65.77,136.08,303.91,Single-ply,SBD,M
Boys,74.84,11,Kaleb Madison,Nederland,67.63,102.06,52.16,113.4,267.62,Single-ply,SBD,M
Boys,74.84,DQ,Markell Perry,Beaumont Ozen,74.84,,,,,Single-ply,SBD,M
Boys,74.84,DQ,Dezman Simpson,Beaumont Ozen,74.84,,,,,Single-ply,SBD,M
Boys,74.84,DQ,Alex Reed,Bridge City,74.84,,,,,Single-ply,SBD,M
Boys,82.1,1,Vernon Allen,CROSBY,81.78,254.01,131.54,222.26,607.81,Single-ply,SBD,M
Boys,89.81,2,Travis Anderson,CROSBY,82.19,229.06,145.15,215.46,589.67,Single-ply,SBD,M
Boys,82.1,3,Randolph Onyiejekua,Beaumont West Brook,78.11,208.65,113.4,215.46,537.51,Single-ply,SBD,M
Boys,82.1,4,Haylon Leckelt,Vidor,80.97,206.38,122.47,195.04,523.9,Single-ply,SBD,M
Boys,82.1,5,Blake Rowe,Vidor,80.2,199.58,120.2,195.04,514.83,Single-ply,SBD,M
Boys,82.1,6,Ronald Zamora,Nederland,75.8,181.44,131.54,188.24,501.22,Single-ply,SBD,M
Boys,82.1,7,Josh Bailey,Hamshire-Fannett,78.06,181.44,113.4,195.04,489.88,Single-ply,SBD,M
Boys,82.1,8,Dillon Roberson,Conroe,81.37,185.97,108.86,181.44,476.27,Single-ply,SBD,M
Boys,82.1,9,Chris Almaguer,Beaumont West Brook,80.69,165.56,102.06,170.1,437.72,Single-ply,SBD,M
Boys,82.1,10,JaCorein Barnes,Port Arthur Memorial,80.15,158.76,102.06,163.29,424.11,Single-ply,SBD,M
Boys,82.1,11,Regnald Allison,Beaumont Central,79.47,142.88,86.18,170.1,399.16,Single-ply,SBD,M
Boys,82.1,12,Ashton Zamora,Nederland,77.43,156.49,88.45,149.69,394.63,Single-ply,SBD,M
Boys,82.1,13,Jacobi Harris,Beaumont West Brook,77.52,142.88,70.31,172.37,385.55,Single-ply,SBD,M
Boys,82.1,14,Issac Pena,Nederland,78.11,124.74,77.11,147.42,349.27,Single-ply,SBD,M
Boys,82.1,15,Hayden Burden,Nederland,80.92,115.67,92.99,131.54,340.19,Single-ply,SBD,M
Boys,82.1,16,Ahmad Seimen,Beaumont Central,76.34,97.52,77.11,113.4,288.03,Single-ply,SBD,M
Boys,82.1,DQ,LaKeith Brown,CROSBY,82.1,,,,,Single-ply,SBD,M
Boys,82.1,DQ,Jayce Runnels,Port Neches-Groves,82.1,,,,,Single-ply,SBD,M
Boys,82.1,DQ,Bryan Comeaux,Vidor,82.1,,,,,Single-ply,SBD,M
Boys,82.1,DQ,Mack Palmer,Saratoga West Hardin,82.1,,,,,Single-ply,SBD,M
Boys,82.1,DQ,Nick Creel,Saratoga West Hardin,82.1,,,,,Single-ply,SBD,M
Boys,82.1,DQ,Austin McKean,Conroe Caney Creek,80.92,,,,,Single-ply,SBD,M
Boys,82.1,DQ,Colt Poole,Bridge City,81.01,,,,,Single-ply,SBD,M
Boys,82.1,DQ,Trevor Larkin,CROSBY,78.65,,,,,Single-ply,SBD,M
Boys,89.81,DQ,Daniel Guilbeaux,Nederland,82.28,167.83,92.99,,,Single-ply,SBD,M
Boys,99.79,1,Zach Griffin,Beaumont Central,89.99,222.26,154.22,240.4,616.89,Single-ply,SBD,M
Boys,89.81,2,Blake Wright,CROSBY,87.86,219.99,127.01,249.48,596.47,Single-ply,SBD,M
Boys,89.81,3,Jordan Daigle,Beaumont Ozen,84.55,181.44,127.01,233.6,542.04,Single-ply,SBD,M
Boys,89.81,4,D'Angelo Godfrey,Beaumont West Brook,86.91,183.7,120.2,231.33,535.24,Single-ply,SBD,M
Boys,89.81,5,Kaylon Johnson,Port Arthur Memorial,89.36,183.7,145.15,204.12,532.97,Single-ply,SBD,M
Boys,99.79,6,Vincent Tran,Nederland,89.99,197.31,120.2,183.7,501.22,Single-ply,SBD,M
Boys,89.81,7,Davian Smith,Beaumont Central,82.96,170.1,124.74,183.7,478.54,Single-ply,SBD,M
Boys,89.81,8,Uri Lujan,Conroe,88.95,183.7,92.99,176.9,453.59,Single-ply,SBD,M
Boys,89.81,9,Jonathan Thomas,Beaumont West Brook,84.82,154.22,102.06,147.42,403.7,Single-ply,SBD,M
Boys,89.81,10,Louis Ortiz,Nederland,88.36,117.93,58.97,149.69,326.59,Single-ply,SBD,M
Boys,89.81,11,Stephen Darby,Nederland,86.18,97.52,70.31,113.4,281.23,Single-ply,SBD,M
Boys,89.81,DQ,Charles Boutte,Hamshire-Fannett,83.01,,,,,Single-ply,SBD,M
Boys,89.81,DQ,Bryce Conde,Nederland,89.72,179.17,,,,Single-ply,SBD,M
Boys,89.81,DQ,Peyton Myers,Nederland,87,,,,,Single-ply,SBD,M
Boys,89.81,DQ,Shaquille Lee,Beaumont Ozen,83.73,88.45,,,,Single-ply,SBD,M
Boys,89.81,DQ,William Stuberfield,Beaumont West Brook,86.5,,,,,Single-ply,SBD,M
Boys,99.79,1,Chase Nix,CROSBY,98.75,267.62,174.63,272.16,714.41,Single-ply,SBD,M
Boys,109.77,2,Ignacio Salinas,Conroe,99.93,233.6,145.15,206.38,585.13,Single-ply,SBD,M
Boys,99.79,3,Mathew Carter,Beaumont West Brook,93.71,240.4,131.54,188.24,560.19,Single-ply,SBD,M
Boys,99.79,4,Jeffery Watson,Vidor,95.93,199.58,120.2,219.99,539.77,Single-ply,SBD,M
Boys,99.79,5,Selah Fontento,Port Arthur Memorial,99.61,192.78,142.88,188.24,523.9,Single-ply,SBD,M
Boys,99.79,6,Chris Andrews,Beaumont West Brook,95.71,192.78,108.86,199.58,501.22,Single-ply,SBD,M
Boys,99.79,7,Tanner Hillard,Beaumont West Brook,95.71,158.76,111.13,163.29,433.18,Single-ply,SBD,M
Boys,99.79,8,Ronald Soloman,Beaumont West Brook,96.66,158.76,102.06,147.42,408.23,Single-ply,SBD,M
Boys,99.79,9,Sam Batchalor,Nederland,91.13,122.47,81.65,124.74,328.85,Single-ply,SBD,M
Boys,99.79,DQ,Brandon Payton,Hamshire-Fannett,97.07,,,,,Single-ply,SBD,M
Boys,99.79,DQ,Chanler Hightower,Port Neches-Groves,99.79,,,,,Single-ply,SBD,M
Boys,99.79,DQ,Terry Oliver,Port Arthur Memorial,98.88,,,,,Single-ply,SBD,M
Boys,99.79,DQ,Blake Myers,Vidor,94.94,,,,,Single-ply,SBD,M
Boys,99.79,DQ,Shaine Elkins,Conroe,99.79,,,,,Single-ply,SBD,M
Boys,99.79,DQ,Diundre Washington,Beaumont Ozen,92.03,,,,,Single-ply,SBD,M
Boys,99.79,DQ,Demarco Williams,Beaumont Ozen,99.65,,,,,Single-ply,SBD,M
Boys,99.79,DQ,Aj Parker,Beaumont Central,92.8,,,,,Single-ply,SBD,M
Boys,99.79,DQ,Dante Lovilotte,Port Arthur Memorial,97.3,192.78,124.74,,,Single-ply,SBD,M
Boys,99.79,DQ,Khaleb Fobish,Port Arthur Memorial,99.7,,,,,Single-ply,SBD,M
Boys,109.77,1,Tyler McDaniel,Vidor,101.33,226.8,147.42,226.8,601.01,Single-ply,SBD,M
Boys,109.77,2,Tyler Moran,Port Neches-Groves,109.23,238.14,161.03,195.04,594.21,Single-ply,SBD,M
Boys,109.77,3,Carter Beck,Orange Little Cypress-Mauriceville,102.83,233.6,124.74,217.72,576.06,Single-ply,SBD,M
Boys,109.77,4,Cody Brown #6,Conroe,102.78,235.87,122.47,208.65,566.99,Single-ply,SBD,M
Boys,124.74,5,Brandon Jackson #10,Port Arthur Memorial,109.86,204.12,142.88,215.46,562.45,Single-ply,SBD,M
Boys,109.77,6,Nick Valentine,Port Neches-Groves,108.36,204.12,138.35,217.72,560.19,Single-ply,SBD,M
Boys,109.77,7,JR Olade,Hamshire-Fannett,105.64,215.46,131.54,208.65,555.65,Single-ply,SBD,M
Boys,109.77,8,Louis Brown #2,Beaumont Central,104.73,208.65,124.74,204.12,537.51,Single-ply,SBD,M
Boys,109.77,9,Dwayne Robertson,Beaumont Central,108.32,204.12,113.4,204.12,521.63,Single-ply,SBD,M
Boys,109.77,10,Lloyd Allums,Beaumont Central,108.91,170.1,129.27,185.97,485.34,Single-ply,SBD,M
Boys,109.77,11,Casy Williams,Port Arthur Memorial,100.97,172.37,117.93,185.97,476.27,Single-ply,SBD,M
Boys,109.77,12,Daniel Gills,Beaumont Central,104.42,156.49,124.74,181.44,462.66,Single-ply,SBD,M
Boys,109.77,13,Byron McCarty,Beaumont Central,102.83,115.67,68.04,136.08,319.78,Single-ply,SBD,M
Boys,109.77,DQ,Marulas Raymo,Beaumont Central,109.77,,,,,Single-ply,SBD,M
Boys,124.74,DQ,Lance Zeno,Beaumont Ozen,109.91,195.04,117.93,,,Single-ply,SBD,M
Boys,124.74,1,Will Demmings,Conroe,122.15,294.84,163.29,240.4,698.53,Single-ply,SBD,M
Boys,124.74,2,Christian Blueitt,Beaumont West Brook,112.35,249.48,158.76,238.14,646.37,Single-ply,SBD,M
Boys,124.74,3,Cameron Bouillion,Nederland,121.29,217.72,131.54,192.78,542.04,Single-ply,SBD,M
Boys,124.74,4,Collin Chesson,Saratoga West Hardin,114.21,199.58,113.4,219.99,532.97,Single-ply,SBD,M
Boys,124.74,5,Deshondric Selman,Beaumont Ozen,112.67,95.25,72.57,158.76,326.59,Single-ply,SBD,M
Boys,124.74,DQ,TJ Anderson,Conroe,124.74,,,,,Single-ply,SBD,M
Boys,124.74,DQ,Brent Holmes,Conroe Caney Creek,124.74,,,,,Single-ply,SBD,M
Boys,124.74,DQ,Chance Hickman,Saratoga West Hardin,124.74,,,,,Single-ply,SBD,M
Boys,124.74,DQ,Jayvon Wright,Port Arthur Memorial,120.2,,,,,Single-ply,SBD,M
Boys,124.74,DQ,Josh Opiela,CROSBY,124.06,,,,,Single-ply,SBD,M
Boys,124.74,DQ,Keyshawn Pettieway,CROSBY,119.88,,,,,Single-ply,SBD,M
Boys,124.74,DQ,Martell Lemalle,Beaumont Ozen,111.27,97.52,97.52,,,Single-ply,SBD,M
Boys,124.74,DQ,Craig Johnson,Beaumont Central,118.21,,,,,Single-ply,SBD,M
Boys,124.74+,1,Andrew Blueitt,Beaumont West Brook,157.85,272.16,158.76,249.48,680.39,Single-ply,SBD,M
Boys,124.74+,2,Skyler Scott,Vidor,135.67,244.94,165.56,249.48,659.98,Single-ply,SBD,M
Boys,124.74+,3,Vernon Samuel,Port Arthur Memorial,130.36,204.12,158.76,219.99,582.87,Single-ply,SBD,M
Boys,124.74+,4,Keenan Murphy,CROSBY,128.41,210.92,127.01,235.87,573.79,Single-ply,SBD,M
Boys,124.74+,5,Colton Lowe,Conroe Caney Creek,140.3,204.12,115.67,188.24,508.02,Single-ply,SBD,M
Boys,124.74+,DQ,Charles Siggers,Beaumont West Brook,136.08,,,,,Single-ply,SBD,M
Boys,124.74+,DQ,Randall Self,Saratoga West Hardin,136.08,,,,,Single-ply,SBD,M
Boys,124.74+,DQ,Chris Mangini,Port Neches-Groves,136.08,,,,,Single-ply,SBD,M
Boys,124.74+,DQ,Matthew Gregory,CROSBY,134.13,,,,,Single-ply,SBD,M
